Electricity Market Prices - July Report
…
The statistics of hourly prices can be checked in the same way:

df %>%
  mutate(Hour=hour(DateTime)) %>%
  group_by(Hour) %>%
  summarise(meanMCP = mean(MCP), medianMCP = median(MCP), maxMCP = max(MCP), minMCP = min(MCP), sdMCP =sd(MCP))

## # A tibble: 24 x 6
##     Hour meanMCP medianMCP maxMCP minMCP sdMCP
##    <int>   <dbl>     <dbl>  <dbl>  <dbl> <dbl>
##  1     0    297.      305.   324.   230. 22.0 
##  2     1    306.      306.   327.   293   5.88
##  3     2    298.      304.   324.   230. 17.4 
##  4     3    284.      301.   322.   199. 32.7 
##  5     4    285.      300    320    219. 24.6 
##  6     5    247.      245.   302.   196. 35.3 
##  7     6    213.      202.   293    140. 29.0 
##  8     7    269.      286.   318.   194. 39.3 
##  9     8    295.      304.   325.   195. 32.6 
## 10     9    288.      311.   328.   174. 47.0 
## #  with 14 more rows

df %>%
  mutate(Hour=hour(DateTime)) %>%
  group_by(Hour) %>%
  summarise(meanSMP = mean(SMP), medianSMP = median(SMP), maxSMP = max(SMP), minSMP = min(SMP), sdSMP = sd(SMP))

## # A tibble: 24 x 6
##     Hour meanSMP medianSMP maxSMP minSMP sdSMP
##    <int>   <dbl>     <dbl>  <dbl>  <dbl> <dbl>
##  1     0    294.      317.   365    179   55.0
##  2     1    308.      320.   361.   180   46.6
##  3     2    297.      315.   357.   180   49.2
##  4     3    283.      301.   350    176   55.1
##  5     4    280.      299.   347.   170   49.9
##  6     5    248.      250.   341.   151.  49.8
##  7     6    213.      221.   335.   114.  43.1
##  8     7    260.      269    340.   171   55.5
##  9     8    278.      301    345    120   59.2
## 10     9    291.      320.   378.   114.  69.7
## #  with 14 more rows
…
The 3 highest MCP/SMP Ratios (23.359, 21.998, 19.609) are significantly higher than the following (1.847297, 1.810331, 1.794751, 1.771412 ) ones. They are observed consecutively at 2020-07-31 12:00:00, 2020-07-31 11:00:00, 2020-07-31 10:00:00 . The same cannot be said about lowest MCP Ratios (0.7133571, 0.7160435, 0.7187826, 0.7486806, 0.7605634, 0.7611323 ) The average MCP/SMP Ratio during the month of July is 7.742567 However, this average drops to 1.779952 when the 3 highest ratios are removed.

Lets take a look at which & how many hours the MCP is almost equal to SMP:

almost <- df %>%
  mutate(roundMCP = round(MCP), roundSMP = round(SMP)) %>%
  filter(roundMCP == roundSMP) %>%
  select(DateTime, roundMCP,roundSMP) %>%
  rename(MCP = roundMCP, SMP = roundSMP)
print(almost)

## # A tibble: 65 x 3
##    DateTime              MCP   SMP
##    <dttm>              <dbl> <dbl>
##  1 2020-07-01 11:00:00   330   330
##  2 2020-07-04 06:00:00   238   238
##  3 2020-07-05 06:00:00   200   200
##  4 2020-07-05 10:00:00   200   200
##  5 2020-07-05 16:00:00   257   257
##  6 2020-07-05 17:00:00   211   211
##  7 2020-07-05 18:00:00   230   230
##  8 2020-07-06 00:00:00   234   234
##  9 2020-07-06 03:00:00   238   238
## 10 2020-07-06 07:00:00   194   194
## #  with 55 more rows
…
